Project
…
Now we can pass the division description to this longer table, using the data in cpi-divisions.

Code

#|label: create-final-table
#joining data
inflation_joined <- us_inflation_long |> 
  left_join(cpi_divisions, join_by(cpi_division_id == id))
inflation_joined

# A tibble: 132 × 5
   country       cpi_division_id  year inflation description                    
   <chr>                   <dbl> <dbl>     <dbl> <chr>                          
 1 United States               1  2011     4.80  Food and non-Alcoholic beverag…
 2 United States               1  2012     2.45  Food and non-Alcoholic beverag…
 3 United States               1  2013     0.908 Food and non-Alcoholic beverag…
 4 United States               1  2014     2.64  Food and non-Alcoholic beverag…
 5 United States               1  2015     1.17  Food and non-Alcoholic beverag…
 6 United States               1  2016    -1.33  Food and non-Alcoholic beverag…
 7 United States               1  2017    -0.202 Food and non-Alcoholic beverag…
 8 United States               1  2018     0.456 Food and non-Alcoholic beverag…
 9 United States               1  2019     0.885 Food and non-Alcoholic beverag…
10 United States               1  2020     3.51  Food and non-Alcoholic beverag…
# ℹ 122 more rows
…
